<?xml version="1.0" encoding="UTF-8" standalone="no"?>
<!-- Created with Inkscape (http://www.inkscape.org/) -->
<svg
    xmlns:inkscape="http://www.inkscape.org/namespaces/inkscape"
    xmlns:rdf="http://www.w3.org/1999/02/22-rdf-syntax-ns#"
    xmlns="http://www.w3.org/2000/svg"
    xmlns:sodipodi="http://sodipodi.sourceforge.net/DTD/sodipodi-0.dtd"
    xmlns:cc="http://creativecommons.org/ns#"
    xmlns:xlink="http://www.w3.org/1999/xlink"
    xmlns:dc="http://purl.org/dc/elements/1.1/"
    xmlns:svg="http://www.w3.org/2000/svg"
    xmlns:ns1="http://sozi.baierouge.fr"
    id="svg4860"
    sodipodi:docname="eyes by netalloy.svg"
    viewBox="0 0 128 128"
    version="1.1"
    inkscape:version="0.48.0 r9654"
  >
  <title
      id="title6324"
    >eyes by netalloy</title
  >
  <defs
      id="defs3"
    >
    <linearGradient
        id="linearGradient5955"
        inkscape:collect="always"
      >
      <stop
          id="stop5957"
          style="stop-color:#000000"
          offset="0"
      />
      <stop
          id="stop5959"
          style="stop-color:#333333"
          offset="1"
      />
    </linearGradient
    >
    <linearGradient
        id="linearGradient5905"
        inkscape:collect="always"
      >
      <stop
          id="stop5907"
          style="stop-color:#cccccf"
          offset="0"
      />
      <stop
          id="stop5909"
          style="stop-color:#000000"
          offset="1"
      />
    </linearGradient
    >
    <filter
        id="filter5842"
        inkscape:collect="always"
        color-interpolation-filters="sRGB"
      >
      <feGaussianBlur
          id="feGaussianBlur5844"
          stdDeviation="2.2887929"
          inkscape:collect="always"
      />
    </filter
    >
    <filter
        id="filter5879"
        height="1.4099"
        width="1.1315"
        color-interpolation-filters="sRGB"
        y="-.20496"
        x="-.065765"
        inkscape:collect="always"
      >
      <feGaussianBlur
          id="feGaussianBlur5881"
          stdDeviation="1.6538427"
          inkscape:collect="always"
      />
    </filter
    >
    <filter
        id="filter5901"
        inkscape:collect="always"
        color-interpolation-filters="sRGB"
      >
      <feGaussianBlur
          id="feGaussianBlur5903"
          stdDeviation="1.2067031"
          inkscape:collect="always"
      />
    </filter
    >
    <radialGradient
        id="radialGradient5911"
        xlink:href="#linearGradient5905"
        gradientUnits="userSpaceOnUse"
        cy="373.93"
        cx="76.685"
        gradientTransform="matrix(-.34563 -.10868 .059773 -.19009 63.298 337.08)"
        r="78.954"
        inkscape:collect="always"
    />
    <filter
        id="filter5915"
        inkscape:collect="always"
        color-interpolation-filters="sRGB"
      >
      <feGaussianBlur
          id="feGaussianBlur5917"
          stdDeviation="2.2615096"
          inkscape:collect="always"
      />
    </filter
    >
    <filter
        id="filter5933"
        height="1.4498"
        width="1.3806"
        color-interpolation-filters="sRGB"
        y="-.22489"
        x="-.19029"
        inkscape:collect="always"
      >
      <feGaussianBlur
          id="feGaussianBlur5935"
          stdDeviation="0.73186489"
          inkscape:collect="always"
      />
    </filter
    >
    <linearGradient
        id="linearGradient5961"
        y2="171.42"
        xlink:href="#linearGradient5955"
        gradientUnits="userSpaceOnUse"
        x2="110.99"
        y1="228.58"
        x1="95.364"
        inkscape:collect="always"
    />
    <filter
        id="filter6087"
        inkscape:collect="always"
        color-interpolation-filters="sRGB"
      >
      <feGaussianBlur
          id="feGaussianBlur6089"
          stdDeviation="0.39594104"
          inkscape:collect="always"
      />
    </filter
    >
    <filter
        id="filter6093"
        inkscape:collect="always"
        color-interpolation-filters="sRGB"
      >
      <feGaussianBlur
          id="feGaussianBlur6095"
          stdDeviation="0.92436202"
          inkscape:collect="always"
      />
    </filter
    >
    <filter
        id="filter6109"
        height="1.3609"
        width="1.3295"
        color-interpolation-filters="sRGB"
        y="-.18045"
        x="-.16476"
        inkscape:collect="always"
      >
      <feGaussianBlur
          id="feGaussianBlur6111"
          stdDeviation="0.52241462"
          inkscape:collect="always"
      />
    </filter
    >
    <radialGradient
        id="radialGradient6308"
        gradientUnits="userSpaceOnUse"
        cy="180.95"
        cx="5.6569"
        gradientTransform="matrix(-.80279 -.69924 .66455 -.75602 -58.305 1108)"
        r="63.708"
        inkscape:collect="always"
      >
      <stop
          id="stop6304"
          style="stop-color:#000000"
          offset="0"
      />
      <stop
          id="stop6306"
          style="stop-color:#000000"
          offset="1"
      />
    </radialGradient
    >
  </defs
  >
  <sodipodi:namedview
      id="base"
      bordercolor="#666666"
      inkscape:pageshadow="2"
      inkscape:window-y="-4"
      pagecolor="#ffffff"
      inkscape:window-height="712"
      inkscape:window-maximized="1"
      inkscape:zoom="1"
      inkscape:window-x="-4"
      showgrid="false"
      borderopacity="1.0"
      inkscape:current-layer="layer1"
      inkscape:cx="-76"
      inkscape:cy="64"
      inkscape:window-width="1280"
      inkscape:pageopacity="0.0"
      inkscape:document-units="mm"
  />
  <g
      id="layer1"
      inkscape:label="Layer 1"
      inkscape:groupmode="layer"
      transform="translate(0 -924.36)"
    >
    <rect
        id="rect6136"
        style="stroke-width:0;fill:url(#radialGradient6308)"
        height="128"
        width="128"
        y="924.36"
        x="0"
    />
    <g
        id="g5975"
        transform="matrix(1.049 0 0 .98061 -37.253 735.52)"
      >
      <path
          id="path5893"
          d="m39.76 251.39c31.275-10.768 31.373-0.4516 39.477 12.384-30.247 15.414-32.179-10.618-39.477-12.384z"
          sodipodi:nodetypes="ccc"
          style="stroke-width:0;fill:url(#radialGradient5911)"
          inkscape:connector-curvature="0"
      />
      <path
          id="path5895"
          style="filter:url(#filter5901);stroke-width:0;fill:#000000"
          d="m-7.8164 236.83c102.95-35.56 103.27-1.49 129.95 40.9-99.563 50.9-105.92-35.06-129.95-40.9z"
          sodipodi:nodetypes="ccc"
          inkscape:connector-curvature="0"
          transform="matrix(.25915 0 0 .26372 45.218 190.38)"
      />
      <g
          id="g5883"
          transform="matrix(.25 0 0 .23892 53.286 195.84)"
        >
        <g
            id="g5852"
            style="stroke-width:0"
            transform="translate(-208.75 -61.774)"
          >
          <path
              id="path5834"
              d="m191.71 299c-11.39 59.107 100.14 95.348 97.277 30.532-0.49471-11.21-7.4314-25.495-17.325-33.738-16.454-13.71-33.868-13.231-52.685-11.144-13.359 1.4818-25.119 3.2033-27.267 14.35z"
              sodipodi:nodetypes="sssss"
              style="stroke-width:0;fill:#4d1a4e"
              inkscape:connector-curvature="0"
          />
          <path
              id="path5836"
              sodipodi:nodetypes="cssssssssscsssssssc"
              style="filter:url(#filter5842);stroke-width:0;fill:#964db2"
              inkscape:connector-curvature="0"
              d="m199.39 303.47s20.315 10 1.4876 11.198c-8.4059 0.53513 15.268 6.852 7.7578 7.8206-12.749 1.6442 7.2297 5.5609 2.457 7.0865-7.9528 2.5422 12.123-4.4494 7.2422 6.0231-4.035 8.658 17.942 2.1102 12.237 11.417-8.9472 14.596 11.589-6.1213 10.794-5.5092-8.8606 6.8179 9.7788 7.208 9.2899 4.0374-3.194-20.712 6.8144-1.6014 7.1448-2.5669 1.7629-5.1504 3.5127-8.1605 9.9798-5.4672 10.739 4.4728 8.7873-12.097 11.176-9.3103-1.3792-2.3904-1.5872-7.2266-4.2867-6.9981-15.344 1.2986-5.3565-7.6869-6.6512-8.8371-5.5216-4.905-15.921-0.79679-8.5601-7.8334 2.915-2.7867-8.7466-9.2998-11.06-5.6212-9.2756 14.751-13.965-7.21-14.571-2.325-2.6394 21.281-8.4484 3.5649-13.532 1.1512-3.0481-1.4472-6.8418 1.3724-10.567 2.4119-3.2804 0.9154-6.7226 2.0182-10.338 3.3217z"
          />
          <path
              id="path5846"
              style="filter:url(#filter5842);stroke-width:0;fill:#964db2"
              d="m199.39 303.47s20.315 10 1.4876 11.198c-8.4059 0.53513 10.298 8.2721 2.7874 9.2407-12.749 1.6442 4.3895 7.691 3.8771 7.7966-8.1778 1.6836 13.543-0.89913 8.6623 9.5733-4.035 8.658 20.072-3.5702 14.367 5.737-8.9472 14.596 11.589-6.1213 10.794-5.5092-8.8606 6.8179 9.7788 7.208 9.2899 4.0374-3.194-20.712 6.8144-1.6014 7.1448-2.5669 1.7629-5.1504 3.5127-8.1605 9.9798-5.4672 10.739 4.4728 8.7873-12.097 11.176-9.3103-1.3792-2.3904-1.5872-7.2266-4.2867-6.9981-15.344 1.2986-5.3565-7.6869-6.6512-8.8371-5.5216-4.905-15.921-0.79679-8.5601-7.8334 2.915-2.7867-8.7466-9.2998-11.06-5.6212-9.2756 14.751-13.965-7.21-14.571-2.325-2.6394 21.281-8.4484 3.5649-13.532 1.1512-3.0481-1.4472-6.8418 1.3724-10.567 2.4119-3.2804 0.9154-6.7226 2.0182-10.338 3.3217z"
              sodipodi:nodetypes="cssssssssscsssssssc"
              transform="matrix(0 -.63442 -.34646 0 346.1 466.67)"
              inkscape:connector-curvature="0"
          />
          <path
              id="path5848"
              style="filter:url(#filter5842);stroke-width:0;fill:#4d1a4e"
              d="m199.39 303.47s20.315 10 1.4876 11.198c-8.4059 0.53513 10.298 8.2721 2.7874 9.2407-12.749 1.6442 4.3895 7.691 3.8771 7.7966-8.1778 1.6836 13.543-0.89913 8.6623 9.5733-4.035 8.658 20.072-3.5702 14.367 5.737-8.9472 14.596 11.589-6.1213 10.794-5.5092-8.8606 6.8179 9.7788 7.208 9.2899 4.0374-3.194-20.712 6.8144-1.6014 7.1448-2.5669 1.7629-5.1504 3.5127-8.1605 9.9798-5.4672 10.739 4.4728 8.7873-12.097 11.176-9.3103-1.3792-2.3904-1.5872-7.2266-4.2867-6.9981-15.344 1.2986-5.3565-7.6869-6.6512-8.8371-5.5216-4.905-15.921-0.79679-8.5601-7.8334 2.915-2.7867-8.7466-9.2998-11.06-5.6212-9.2756 14.751-13.965-7.21-14.571-2.325-2.6394 21.281-8.4484 3.5649-13.532 1.1512-3.0481-1.4472-6.8418 1.3724-10.567 2.4119-3.2804 0.9154-6.7226 2.0182-10.338 3.3217z"
              sodipodi:nodetypes="cssssssssscsssssssc"
              inkscape:connector-curvature="0"
              transform="matrix(0 -.55256 -.27719 0 322.07 449.99)"
          />
          <path
              id="path5850"
              d="m245.57 286.05c-4.3312 2.6525-9.7868-4.323-13.065 2.5935-7.8625 16.587-7.2794 36.212 1.611 47.333 12.005-27.138 6.3987-38.315 11.454-49.926z"
              sodipodi:nodetypes="cscc"
              style="stroke-width:0;fill:#000000"
              inkscape:connector-curvature="0"
          />
        </g
        >
        <path
            id="path5859"
            style="filter:url(#filter5879);stroke-width:0;fill:#fff7fb"
            d="m204.49 306.81s19.918-9.4649 29.822-7.8106c11.276 1.8834 30.532 19.171 30.532 19.171-26.49-5.7304-52.681-8.5639-60.354-11.361z"
            sodipodi:nodetypes="cscc"
            inkscape:connector-curvature="0"
            transform="matrix(.70418 0 0 .65279 -135.07 39.654)"
        />
        <path
            id="path5869"
            sodipodi:rx="4.6153255"
            sodipodi:ry="3.9052751"
            style="filter:url(#filter5933);stroke-width:0;fill:#fff7fb"
            sodipodi:type="arc"
            d="m47.573 312.85c0 2.1568-2.0664 3.9053-4.6153 3.9053-2.549 0-4.6153-1.7484-4.6153-3.9053 0-2.1568 2.0664-3.9053 4.6153-3.9053 2.549 0 4.6153 1.7484 4.6153 3.9053z"
            transform="matrix(1 0 0 -1.0909 -4.2603 596.26)"
            sodipodi:cy="312.84506"
            sodipodi:cx="42.958027"
        />
      </g
      >
      <path
          id="path5913"
          style="block-progression:tb;text-indent:0;filter:url(#filter5915);color:#000000;text-transform:none;fill:#000000"
          d="m60.875 205.81c-30.95 0.00054-61.87 16.373-85.312 22.719l2 7.4375c24.928-6.75 55.15-22.47 83.312-22.47 14.081-0.00025 27.536 3.7148 40.188 14.344 12.651 10.629 23.164 30.629 36.507 60.518l13.396 7.8143c13.17 30.15-30.91-62.42-44.97-74.23-14.064-11.82-29.65-16.13-45.125-16.13z"
          sodipodi:nodetypes="sccssccss"
          transform="matrix(.26125 0 0 .23949 43.315 196.24)"
          inkscape:connector-curvature="0"
      />
      <path
          id="path5919"
          style="block-progression:tb;text-indent:0;filter:url(#filter5915);color:#000000;text-transform:none;fill:url(#linearGradient5961)"
          d="m51.062 204.94c-27.687 1.874-52.135 17.269-75.5 23.594l3.2892-0.52432c27.494 3.35 47.666-13.69 72.743-15.39 25.076-1.6974 44.542 10.928 77.075 57.202l16.68-4.72c-33.4-47.5-66.601-62.04-94.288-60.16z"
          sodipodi:nodetypes="sccsccs"
          transform="matrix(.22625 .13063 .11975 -.20741 16.851 302.51)"
          inkscape:connector-curvature="0"
      />
    </g
    >
    <g
        id="g6020"
        transform="matrix(-1.049 0 0 .98061 164.11 733.9)"
      >
      <path
          id="path6022"
          sodipodi:nodetypes="ccc"
          style="fill:url(#radialGradient5911);stroke-width:0"
          inkscape:connector-curvature="0"
          d="m39.76 251.39c31.275-10.768 31.373-0.4516 39.477 12.384-30.247 15.414-32.179-10.618-39.477-12.384z"
      />
      <path
          id="path6024"
          style="filter:url(#filter5901);stroke-width:0;fill:#000000"
          d="m-7.8164 236.83c102.95-35.56 103.27-1.49 129.95 40.9-99.563 50.9-105.92-35.06-129.95-40.9z"
          sodipodi:nodetypes="ccc"
          inkscape:connector-curvature="0"
          transform="matrix(.25915 0 0 .26372 45.218 190.38)"
      />
      <g
          id="g6026"
          transform="matrix(.25 0 0 .23892 53.286 195.84)"
        >
        <g
            id="g6028"
            style="stroke-width:0"
            transform="translate(-208.75 -61.774)"
          >
          <path
              id="path6030"
              sodipodi:nodetypes="sssss"
              style="stroke-width:0;fill:#4d1a4e"
              inkscape:connector-curvature="0"
              d="m191.71 299c-11.39 59.107 100.14 95.348 97.277 30.532-0.49471-11.21-7.4314-25.495-17.325-33.738-16.454-13.71-33.868-13.231-52.685-11.144-13.359 1.4818-25.119 3.2033-27.267 14.35z"
          />
          <path
              id="path6032"
              d="m199.39 303.47s20.315 10 1.4876 11.198c-8.4059 0.53513 15.268 6.852 7.7578 7.8206-12.749 1.6442 7.2297 5.5609 2.457 7.0865-7.9528 2.5422 12.123-4.4494 7.2422 6.0231-4.035 8.658 17.942 2.1102 12.237 11.417-8.9472 14.596 11.589-6.1213 10.794-5.5092-8.8606 6.8179 9.7788 7.208 9.2899 4.0374-3.194-20.712 6.8144-1.6014 7.1448-2.5669 1.7629-5.1504 3.5127-8.1605 9.9798-5.4672 10.739 4.4728 8.7873-12.097 11.176-9.3103-1.3792-2.3904-1.5872-7.2266-4.2867-6.9981-15.344 1.2986-5.3565-7.6869-6.6512-8.8371-5.5216-4.905-15.921-0.79679-8.5601-7.8334 2.915-2.7867-8.7466-9.2998-11.06-5.6212-9.2756 14.751-13.965-7.21-14.571-2.325-2.6394 21.281-8.4484 3.5649-13.532 1.1512-3.0481-1.4472-6.8418 1.3724-10.567 2.4119-3.2804 0.9154-6.7226 2.0182-10.338 3.3217z"
              sodipodi:nodetypes="cssssssssscsssssssc"
              style="filter:url(#filter5842);stroke-width:0;fill:#964db2"
              inkscape:connector-curvature="0"
          />
          <path
              id="path6034"
              style="filter:url(#filter5842);stroke-width:0;fill:#964db2"
              d="m199.39 303.47s20.315 10 1.4876 11.198c-8.4059 0.53513 10.298 8.2721 2.7874 9.2407-12.749 1.6442 4.3895 7.691 3.8771 7.7966-8.1778 1.6836 13.543-0.89913 8.6623 9.5733-4.035 8.658 20.072-3.5702 14.367 5.737-8.9472 14.596 11.589-6.1213 10.794-5.5092-8.8606 6.8179 9.7788 7.208 9.2899 4.0374-3.194-20.712 6.8144-1.6014 7.1448-2.5669 1.7629-5.1504 3.5127-8.1605 9.9798-5.4672 10.739 4.4728 8.7873-12.097 11.176-9.3103-1.3792-2.3904-1.5872-7.2266-4.2867-6.9981-15.344 1.2986-5.3565-7.6869-6.6512-8.8371-5.5216-4.905-15.921-0.79679-8.5601-7.8334 2.915-2.7867-8.7466-9.2998-11.06-5.6212-9.2756 14.751-13.965-7.21-14.571-2.325-2.6394 21.281-8.4484 3.5649-13.532 1.1512-3.0481-1.4472-6.8418 1.3724-10.567 2.4119-3.2804 0.9154-6.7226 2.0182-10.338 3.3217z"
              sodipodi:nodetypes="cssssssssscsssssssc"
              inkscape:connector-curvature="0"
              transform="matrix(0 -.63442 -.34646 0 346.1 466.67)"
          />
          <path
              id="path6036"
              style="filter:url(#filter5842);stroke-width:0;fill:#4d1a4e"
              d="m199.39 303.47s20.315 10 1.4876 11.198c-8.4059 0.53513 10.298 8.2721 2.7874 9.2407-12.749 1.6442 4.3895 7.691 3.8771 7.7966-8.1778 1.6836 13.543-0.89913 8.6623 9.5733-4.035 8.658 20.072-3.5702 14.367 5.737-8.9472 14.596 11.589-6.1213 10.794-5.5092-8.8606 6.8179 9.7788 7.208 9.2899 4.0374-3.194-20.712 6.8144-1.6014 7.1448-2.5669 1.7629-5.1504 3.5127-8.1605 9.9798-5.4672 10.739 4.4728 8.7873-12.097 11.176-9.3103-1.3792-2.3904-1.5872-7.2266-4.2867-6.9981-15.344 1.2986-5.3565-7.6869-6.6512-8.8371-5.5216-4.905-15.921-0.79679-8.5601-7.8334 2.915-2.7867-8.7466-9.2998-11.06-5.6212-9.2756 14.751-13.965-7.21-14.571-2.325-2.6394 21.281-8.4484 3.5649-13.532 1.1512-3.0481-1.4472-6.8418 1.3724-10.567 2.4119-3.2804 0.9154-6.7226 2.0182-10.338 3.3217z"
              sodipodi:nodetypes="cssssssssscsssssssc"
              transform="matrix(0 -.55256 -.27719 0 322.07 449.99)"
              inkscape:connector-curvature="0"
          />
          <path
              id="path6038"
              sodipodi:nodetypes="cscc"
              style="stroke-width:0;fill:#000000"
              inkscape:connector-curvature="0"
              d="m245.57 286.05c-4.3312 2.6525-9.7868-4.323-13.065 2.5935-7.8625 16.587-7.2794 36.212 1.611 47.333 12.005-27.138 6.3987-38.315 11.454-49.926z"
          />
        </g
        >
        <path
            id="path6040"
            style="filter:url(#filter5879);stroke-width:0;fill:#fff7fb"
            d="m204.49 306.81s19.918-9.4649 29.822-7.8106c11.276 1.8834 30.532 19.171 30.532 19.171-26.49-5.7304-52.681-8.5639-60.354-11.361z"
            sodipodi:nodetypes="cscc"
            transform="matrix(.70418 0 0 .65279 -135.07 39.654)"
            inkscape:connector-curvature="0"
        />
        <path
            id="path6042"
            sodipodi:rx="4.6153255"
            sodipodi:ry="3.9052751"
            style="filter:url(#filter5933);stroke-width:0;fill:#fff7fb"
            sodipodi:type="arc"
            d="m47.573 312.85c0 2.1568-2.0664 3.9053-4.6153 3.9053-2.549 0-4.6153-1.7484-4.6153-3.9053 0-2.1568 2.0664-3.9053 4.6153-3.9053 2.549 0 4.6153 1.7484 4.6153 3.9053z"
            transform="matrix(1 0 0 -1.0909 -4.2603 596.26)"
            sodipodi:cy="312.84506"
            sodipodi:cx="42.958027"
        />
      </g
      >
      <path
          id="path6044"
          style="block-progression:tb;text-indent:0;filter:url(#filter5915);color:#000000;text-transform:none;fill:#000000"
          d="m60.875 205.81c-30.95 0.00054-61.87 16.373-85.312 22.719l2 7.4375c24.928-6.75 55.15-22.47 83.312-22.47 14.081-0.00025 27.536 3.7148 40.188 14.344 12.651 10.629 23.164 30.629 36.507 60.518l13.396 7.8143c13.17 30.15-30.91-62.42-44.97-74.23-14.064-11.82-29.65-16.13-45.125-16.13z"
          sodipodi:nodetypes="sccssccss"
          inkscape:connector-curvature="0"
          transform="matrix(.26125 0 0 .23949 43.315 196.24)"
      />
      <path
          id="path6046"
          style="block-progression:tb;text-indent:0;filter:url(#filter5915);color:#000000;text-transform:none;fill:url(#linearGradient5961)"
          d="m51.062 204.94c-27.687 1.874-52.135 17.269-75.5 23.594l-1.0131-4.8291c27.493 3.356 51.968-9.3798 77.044-11.077 25.076-1.6974 44.542 10.928 77.075 57.202l16.68-4.72c-33.4-47.5-66.601-62.04-94.288-60.16z"
          sodipodi:nodetypes="sccsccs"
          inkscape:connector-curvature="0"
          transform="matrix(.22625 .13063 .11975 -.20741 16.851 302.51)"
      />
    </g
    >
    <path
        id="path6085"
        style="filter:url(#filter6087);stroke-width:0;fill:#000000"
        d="m38.546 249.69c23.2-12.55 37.898-3.83 42.185 16.38-7.913-22-22.262-23.36-42.185-16.38z"
        sodipodi:nodetypes="ccc"
        inkscape:connector-curvature="0"
        transform="matrix(1.049 0 0 .98061 -37.253 735.52)"
    />
    <path
        id="path6091"
        style="filter:url(#filter6093);stroke-width:0;fill:#333333"
        d="m40.2 248.7c23.2-12.56 37.899-3.83 42.185 16.37-7.913-21.99-22.261-23.35-42.185-16.37z"
        sodipodi:nodetypes="ccc"
        inkscape:connector-curvature="0"
        transform="matrix(1.049 0 0 .98061 -37.253 735.52)"
    />
    <path
        id="path6099"
        style="filter:url(#filter6087);stroke-width:0;fill:#000000"
        d="m38.546 249.69c23.2-12.55 37.898-3.83 42.185 16.38-7.913-22-22.262-23.36-42.185-16.38z"
        sodipodi:nodetypes="ccc"
        inkscape:connector-curvature="0"
        transform="matrix(-1.049 0 0 .98061 164.22 734.55)"
    />
    <path
        id="path6101"
        style="filter:url(#filter6093);stroke-width:0;fill:#333333"
        d="m40.2 248.7c23.2-12.56 37.899-3.83 42.185 16.37-7.913-21.99-22.261-23.35-42.185-16.37z"
        sodipodi:nodetypes="ccc"
        inkscape:connector-curvature="0"
        transform="matrix(-1.049 0 0 .98061 163.01 734.38)"
    />
    <path
        id="path6103"
        style="filter:url(#filter6109);stroke-width:0;fill:#333333"
        d="m70.747 265.84 8.6597-1.2645c4.7901 2.316 6.2969 4.6321 2.6469 6.9481 1.5597-5.0288-7.5855-5.2184-11.307-5.6836z"
        sodipodi:nodetypes="cccc"
        inkscape:connector-curvature="0"
        transform="matrix(.32860 0 0 1.0664 18.597 711.47)"
    />
    <path
        id="path6113"
        style="filter:url(#filter6109);stroke-width:0;fill:#333333"
        d="m70.747 265.84 8.6597-1.2645c4.7901 2.316 6.2969 4.6321 2.6469 6.9481 1.5597-5.0288-7.5855-5.2184-11.307-5.6836z"
        sodipodi:nodetypes="cccc"
        transform="matrix(-.32860 0 0 1.1271 108.17 693.29)"
        inkscape:connector-curvature="0"
    />
  </g
  >
  <metadata
    >
    <rdf:RDF
      >
      <cc:Work
        >
        <dc:format
          >image/svg+xml</dc:format
        >
        <dc:type
            rdf:resource="http://purl.org/dc/dcmitype/StillImage"
        />
        <cc:license
            rdf:resource="http://creativecommons.org/licenses/publicdomain/"
        />
        <dc:publisher
          >
          <cc:Agent
              rdf:about="http://openclipart.org/"
            >
            <dc:title
              >Openclipart</dc:title
            >
          </cc:Agent
          >
        </dc:publisher
        >
        <dc:title
          >eyes by netalloy</dc:title
        >
        <dc:date
          >2010-09-13T20:10:03</dc:date
        >
        <dc:description
        />
        <dc:source
          >https://openclipart.org/detail/84697/eyes-by-netalloy-by-netalloy</dc:source
        >
        <dc:creator
          >
          <cc:Agent
            >
            <dc:title
              >netalloy</dc:title
            >
          </cc:Agent
          >
        </dc:creator
        >
        <dc:subject
          >
          <rdf:Bag
            >
            <rdf:li
              >cat eyes</rdf:li
            >
            <rdf:li
              >cat eyes icon 128x128</rdf:li
            >
            <rdf:li
              >dreaded</rdf:li
            >
            <rdf:li
              >fear</rdf:li
            >
            <rdf:li
              >halloween 2010</rdf:li
            >
            <rdf:li
              >halloween2010</rdf:li
            >
            <rdf:li
              >icon</rdf:li
            >
            <rdf:li
              >mask</rdf:li
            >
            <rdf:li
              >spy</rdf:li
            >
            <rdf:li
              >watching</rdf:li
            >
          </rdf:Bag
          >
        </dc:subject
        >
      </cc:Work
      >
      <cc:License
          rdf:about="http://creativecommons.org/licenses/publicdomain/"
        >
        <cc:permits
            rdf:resource="http://creativecommons.org/ns#Reproduction"
        />
        <cc:permits
            rdf:resource="http://creativecommons.org/ns#Distribution"
        />
        <cc:permits
            rdf:resource="http://creativecommons.org/ns#DerivativeWorks"
        />
      </cc:License
      >
    </rdf:RDF
    >
  </metadata
  >
</svg
>
